{
	"name": "ChangePassword",
	"path": "https://qa.settld.block8.app/api/auth/change-password",
	
	"Method": "POST",
	"headers": {
		"User-Agent": "PostmanRuntime/7.28.0",
		"Accept-Encoding": "gzip, deflate, br",
		"Connection" : "keep-alive",
		"accept": "application/json",
		"Content-Type" : "application/json",
		"Authorization": "Bearer &{Authtoken}"
	},
	
	"Payload":{
   
     "currentPassword": "SoftwareTesting@1234",
    "newPassword": "${NewPassword}",
    "confirmPassword": "${Confirmpass}"
	
	},
	
	
	"ExpectedStatus": "201",
	"Validations": {
		"_id" : "payload._id",
		"name" : "payload.name",
		"description" :"payload.description"
	
	},
	"ExtractValues": {
	"_id" : "payload._id",
		"name" : "payload.name",
		"description" :"payload.description"
	}
}
